{
  "rateDetail": {
    "paginator": {
      "items": 937,
      "lastPage": 47,
      "page": 1
    },
    "rateCount": {
      "picNum": 299,
      "shop": 0,
      "total": 937,
      "used": 89
    },
    "rateDanceInfo": {
      "currentMilles": 1492854372619,
      "intervalMilles": 42556694380,
      "showChooseTopic": false,
      "storeType": 4
    },
    "rateList": [{
      "aliMallSeller": false,
      "anony": true,
      "appendComment": "",
      "attributes": "",
      "attributesMap": "",
      "aucNumId": "",
      "auctionPicUrl": "",
      "auctionPrice": "",
      "auctionSku": "重量:1.75g;规格:国检标签",
      "auctionTitle": "",
      "buyCount": 0,
      "carServiceLocation": "",
      "cmsSource": "天猫",
      "displayRatePic": "",
      "displayRateSum": 0,
      "displayUserLink": "",
      "displayUserNick": "家***8",
      "displayUserNumId": "",
      "displayUserRateLink": "",
      "dsr": 0.0,
      "fromMall": true,
      "fromMemory": 0,
      "gmtCreateTime": 1492661937000,
      "id": 307967059700,
      "pics": ["//img.alicdn.com/bao/uploaded/i3/1683406021345348894/TB21506mwJlpuFjSspjXXcT.pXa_!!0-rate.jpg", "//img.alicdn.com/bao/uploaded/i1/1683406021379427020/TB2.506mwJlpuFjSspjXXcT.pXa_!!0-rate.jpg", "//img.alicdn.com/bao/uploaded/i2/1683406021528430751/TB27l9rmCFjpuFjSszhXXaBuVXa_!!0-rate.jpg"],
      "picsSmall": "",
      "position": "920-11-0,3;920-11-8,11;920-11-26,30;",
      "rateContent": "真黄金，分量够！颜色正，要是有5克大的规格就更好了！发票正规！",
      "rateDate": "2017-04-20 12:18:57",
      "reply": "您好，感谢您对中国黄金官方旗舰店的支持！我们时刻都在尽心尽力的努力哦，希望亲们选购愉快，收到包裹的时候都能满意开心，您们的支持是我们不断前进的动力，期待您再次光临~我们会为您做得更好~~",
      "sellerId": 1720024852,
      "serviceRateContent": "",
      "structuredRateList": [],
      "tamllSweetLevel": 0,
      "tmallSweetPic": "",
      "tradeEndTime": 1492661696000,
      "tradeId": "",
      "useful": true,
      "userIdEncryption": "",
      "userInfo": "",
      "userVipLevel": 0,
      "userVipPic": ""
    }, {
      "aliMallSeller": false,
      "anony": true,
      "appendComment": "",
      "attributes": "",
      "attributesMap": "",
      "aucNumId": "",
      "auctionPicUrl": "",
      "auctionPrice": "",
      "auctionSku": "重量:1.67g;规格:国检标签",
      "auctionTitle": "",
      "buyCount": 0,
      "carServiceLocation": "",
      "cmsSource": "天猫",
      "displayRatePic": "",
      "displayRateSum": 0,
      "displayUserLink": "",
      "displayUserNick": "布***7",
      "displayUserNumId": "",
      "displayUserRateLink": "",
      "dsr": 0.0,
      "fromMall": true,
      "fromMemory": 0,
      "gmtCreateTime": 1489711094000,
      "id": 304389757186,
      "pics": ["//img.alicdn.com/bao/uploaded/i4/1236805029616719100/TB2THJXjtFopuFjSZFHXXbSlXXa_!!0-rate.jpg"],
      "picsSmall": "",
      "position": "520-11-14,26;620-12-27,35;920-11-42,44;420-11-0,5;",
      "rateContent": "顺丰超给力，第二天就收到了，妇女节买的用了券比较划算，宝贝有证书有发票，应该是真的，好评",
      "rateDate": "2017-03-17 08:38:14",
      "reply": "感谢您的支持，产品能够得到您的肯定和喜欢，我们也非常高兴。中国黄金会不定期举行活动，如您需要咨询更多的活动优惠信息欢迎联系客服哦，期待您的下次光临！",
      "sellerId": 1720024852,
      "serviceRateContent": "",
      "structuredRateList": [],
      "tamllSweetLevel": 0,
      "tmallSweetPic": "",
      "tradeEndTime": 1489652864000,
      "tradeId": "",
      "useful": true,
      "userIdEncryption": "",
      "userInfo": "",
      "userVipLevel": 0,
      "userVipPic": ""
    }, {
      "aliMallSeller": false,
      "anony": true,
      "appendComment": "",
      "attributes": "",
      "attributesMap": "",
      "aucNumId": "",
      "auctionPicUrl": "",
      "auctionPrice": "",
      "auctionSku": "重量:1.81g;规格:国检标签",
      "auctionTitle": "",
      "buyCount": 0,
      "carServiceLocation": "",
      "cmsSource": "天猫",
      "displayRatePic": "",
      "displayRateSum": 0,
      "displayUserLink": "",
      "displayUserNick": "刘***q",
      "displayUserNumId": "",
      "displayUserRateLink": "",
      "dsr": 0.0,
      "fromMall": true,
      "fromMemory": 0,
      "gmtCreateTime": 1491901323000,
      "id": 307086540844,
      "pics": "",
      "picsSmall": "",
      "position": "220-13-0,8;",
      "rateContent": "不错就是包装一般",
      "rateDate": "2017-04-11 17:02:03",
      "reply": "亲~我们的每件产品均配有红色绒布袋，首饰还会配有相应的首饰盒；您的建议我们会用心记下，我们会不断改进，力求给亲提供更周全、满意的服务。希望亲能继续支持我们，谢谢~",
      "sellerId": 1720024852,
      "serviceRateContent": "",
      "structuredRateList": [],
      "tamllSweetLevel": 2,
      "tmallSweetPic": "tmall-grade-t2-18.png",
      "tradeEndTime": 1491295026000,
      "tradeId": "",
      "useful": true,
      "userIdEncryption": "",
      "userInfo": "",
      "userVipLevel": 0,
      "userVipPic": ""
    }, {
      "aliMallSeller": false,
      "anony": true,
      "appendComment": "",
      "attributes": "",
      "attributesMap": "",
      "aucNumId": "",
      "auctionPicUrl": "",
      "auctionPrice": "",
      "auctionSku": "重量:1.68g;规格:国检标签",
      "auctionTitle": "",
      "buyCount": 0,
      "carServiceLocation": "",
      "cmsSource": "天猫",
      "displayRatePic": "",
      "displayRateSum": 0,
      "displayUserLink": "",
      "displayUserNick": "r***y",
      "displayUserNumId": "",
      "displayUserRateLink": "",
      "dsr": 0.0,
      "fromMall": true,
      "fromMemory": 0,
      "gmtCreateTime": 1489723711000,
      "id": 304128761362,
      "pics": ["//img.alicdn.com/bao/uploaded/i3/1627205029752581182/TB27vltjElnpuFjSZFjXXXTaVXa_!!0-rate.jpg"],
      "picsSmall": "",
      "position": "920-11-16,18;920-11-47,49;920-11-43,46;420-12-6,15;620-12-19,31;",
      "rateContent": "北京发杭州，顺丰第二天就送到了，给力！宝贝不大但也比想象中要大，空心的，有发票和证书，很正规，好评",
      "rateDate": "2017-03-17 12:08:31",
      "reply": "感谢您的喜爱与支持，您的满意是我们的心愿与追求，给予您贴心的服务，是我们一直努力的目标，我们会继续努力做到更好，中国黄金官方旗舰店愿与您分享每一个快乐的时光。希望能成为您一生的知己，相伴每一个快乐时光。店里也时常有优惠活动，您可以常留意关注下哦！",
      "sellerId": 1720024852,
      "serviceRateContent": "",
      "structuredRateList": [],
      "tamllSweetLevel": 0,
      "tmallSweetPic": "",
      "tradeEndTime": 1489652858000,
      "tradeId": "",
      "useful": true,
      "userIdEncryption": "",
      "userInfo": "",
      "userVipLevel": 0,
      "userVipPic": ""
    }, {
      "aliMallSeller": false,
      "anony": true,
      "appendComment": "",
      "attributes": "",
      "attributesMap": "",
      "aucNumId": "",
      "auctionPicUrl": "",
      "auctionPrice": "",
      "auctionSku": "重量:1.79g;规格:国检标签",
      "auctionTitle": "",
      "buyCount": 0,
      "carServiceLocation": "",
      "cmsSource": "天猫",
      "displayRatePic": "",
      "displayRateSum": 0,
      "displayUserLink": "",
      "displayUserNick": "果***4",
      "displayUserNumId": "",
      "displayUserRateLink": "",
      "dsr": 0.0,
      "fromMall": true,
      "fromMemory": 0,
      "gmtCreateTime": 1492130393000,
      "id": 307252484110,
      "pics": "",
      "picsSmall": "",
      "position": "920-11-16,20;620-11-11,15;920-12-0,10;",
      "rateContent": "不好意思确认收获迟了，宝贝很好，也很漂亮。",
      "rateDate": "2017-04-14 08:39:53",
      "reply": "非常感谢您选择购买我们中国黄金的商品，您的好评让我们更加有动力继续努力！中国黄金官方旗舰店会不断推出优惠活动，回馈新老顾客，只想停留在这美丽的瞬间，只想为您提供最好的服务，真心换取您的信任，祝亲生活愉快，合家欢乐！",
      "sellerId": 1720024852,
      "serviceRateContent": "",
      "structuredRateList": [],
      "tamllSweetLevel": 2,
      "tmallSweetPic": "tmall-grade-t2-18.png",
      "tradeEndTime": 1491961185000,
      "tradeId": "",
      "useful": true,
      "userIdEncryption": "",
      "userInfo": "",
      "userVipLevel": 0,
      "userVipPic": ""
    }, {
      "aliMallSeller": false,
      "anony": true,
      "appendComment": "",
      "attributes": "",
      "attributesMap": "",
      "aucNumId": "",
      "auctionPicUrl": "",
      "auctionPrice": "",
      "auctionSku": "重量:1.72g;规格:国检标签",
      "auctionTitle": "",
      "buyCount": 0,
      "carServiceLocation": "",
      "cmsSource": "天猫",
      "displayRatePic": "",
      "displayRateSum": 0,
      "displayUserLink": "",
      "displayUserNick": "二***哒",
      "displayUserNumId": "",
      "displayUserRateLink": "",
      "dsr": 0.0,
      "fromMall": true,
      "fromMemory": 0,
      "gmtCreateTime": 1492066773000,
      "id": 307284544010,
      "pics": "",
      "picsSmall": "",
      "position": "920-11-0,2;920-11-3,9;",
      "rateContent": "不错 女朋友很喜欢。",
      "rateDate": "2017-04-13 14:59:33",
      "reply": "您好，感谢您对中国黄金官方旗舰店的支持！我们时刻都在尽心尽力的努力哦，希望亲们选购愉快，收到包裹的时候都能满意开心，您们的支持是我们不断前进的动力，期待您再次光临~我们会为您做得更好~~",
      "sellerId": 1720024852,
      "serviceRateContent": "",
      "structuredRateList": [],
      "tamllSweetLevel": 2,
      "tmallSweetPic": "tmall-grade-t2-18.png",
      "tradeEndTime": 1491539453000,
      "tradeId": "",
      "useful": true,
      "userIdEncryption": "",
      "userInfo": "",
      "userVipLevel": 0,
      "userVipPic": ""
    }, {
      "aliMallSeller": false,
      "anony": true,
      "appendComment": "",
      "attributes": "",
      "attributesMap": "",
      "aucNumId": "",
      "auctionPicUrl": "",
      "auctionPrice": "",
      "auctionSku": "重量:1.82g;规格:国检标签",
      "auctionTitle": "",
      "buyCount": 0,
      "carServiceLocation": "",
      "cmsSource": "天猫",
      "displayRatePic": "",
      "displayRateSum": 0,
      "displayUserLink": "",
      "displayUserNick": "b***4",
      "displayUserNumId": "",
      "displayUserRateLink": "",
      "dsr": 0.0,
      "fromMall": true,
      "fromMemory": 0,
      "gmtCreateTime": 1491401419000,
      "id": 306342113142,
      "pics": "",
      "picsSmall": "",
      "position": "220-13-5,10;620-11-0,4;",
      "rateContent": "宝贝不错，包装差了点。",
      "rateDate": "2017-04-05 22:10:19",
      "reply": "亲~您好，感谢您的支持及您温馨的评价，中国黄金定竭尽所能秉着顾客至上的服务理念为广大顾客提供更多优质宝贝，不负您的信任和支持！期待您的再次光临！",
      "sellerId": 1720024852,
      "serviceRateContent": "",
      "structuredRateList": [],
      "tamllSweetLevel": 0,
      "tmallSweetPic": "",
      "tradeEndTime": 1491355948000,
      "tradeId": "",
      "useful": true,
      "userIdEncryption": "",
      "userInfo": "",
      "userVipLevel": 0,
      "userVipPic": ""
    }, {
      "aliMallSeller": false,
      "anony": true,
      "appendComment": "",
      "attributes": "",
      "attributesMap": "",
      "aucNumId": "",
      "auctionPicUrl": "",
      "auctionPrice": "",
      "auctionSku": "重量:1.78g;规格:国检标签",
      "auctionTitle": "",
      "buyCount": 0,
      "carServiceLocation": "",
      "cmsSource": "天猫",
      "displayRatePic": "",
      "displayRateSum": 0,
      "displayUserLink": "",
      "displayUserNick": "羲***a",
      "displayUserNumId": "",
      "displayUserRateLink": "",
      "dsr": 0.0,
      "fromMall": true,
      "fromMemory": 0,
      "gmtCreateTime": 1491375040000,
      "id": 306363373226,
      "pics": "",
      "picsSmall": "",
      "position": "920-13-0,3;",
      "rateContent": "一般吧，称重1.7",
      "rateDate": "2017-04-05 14:50:40",
      "reply": "亲~电子称是一种精密仪器，有时候会受空气中的湿度、气温以及气流、以及地域等因素的影响而出现细微的差异，我公司严格执行国家发改委发布的轻工业行业标准中关于贵金属饰品质量测量允差的规定（QB/T?1690-2004《贵金属饰品质量测量允差的规定》），确保误差值在国家标准范围之内的哦~",
      "sellerId": 1720024852,
      "serviceRateContent": "",
      "structuredRateList": [],
      "tamllSweetLevel": 0,
      "tmallSweetPic": "",
      "tradeEndTime": 1491375014000,
      "tradeId": "",
      "useful": true,
      "userIdEncryption": "",
      "userInfo": "",
      "userVipLevel": 0,
      "userVipPic": ""
    }, {
      "aliMallSeller": false,
      "anony": true,
      "appendComment": "",
      "attributes": "",
      "attributesMap": "",
      "aucNumId": "",
      "auctionPicUrl": "",
      "auctionPrice": "",
      "auctionSku": "重量:1.84g;规格:国检标签",
      "auctionTitle": "",
      "buyCount": 0,
      "carServiceLocation": "",
      "cmsSource": "天猫",
      "displayRatePic": "",
      "displayRateSum": 0,
      "displayUserLink": "",
      "displayUserNick": "夏***0",
      "displayUserNumId": "",
      "displayUserRateLink": "",
      "dsr": 0.0,
      "fromMall": true,
      "fromMemory": 0,
      "gmtCreateTime": 1489988034000,
      "id": 304652624840,
      "pics": "",
      "picsSmall": "",
      "position": "920-11-0,3;920-11-9,13;920-11-4,8;220-11-14,19;920-11-20,22;",
      "rateContent": "非常好，做工细致，大小合适，包装很仔细，满意",
      "rateDate": "2017-03-20 13:33:54",
      "reply": "感谢您的支持，产品能够得到您的肯定和喜欢，我们也非常高兴。中国黄金会不定期举行活动，如您需要咨询更多的活动优惠信息欢迎联系客服哦，期待您的下次光临！",
      "sellerId": 1720024852,
      "serviceRateContent": "",
      "structuredRateList": [],
      "tamllSweetLevel": 0,
      "tmallSweetPic": "",
      "tradeEndTime": 1489987967000,
      "tradeId": "",
      "useful": true,
      "userIdEncryption": "",
      "userInfo": "",
      "userVipLevel": 0,
      "userVipPic": ""
    }, {
      "aliMallSeller": false,
      "anony": false,
      "appendComment": "",
      "attributes": "",
      "attributesMap": "",
      "aucNumId": "",
      "auctionPicUrl": "",
      "auctionPrice": "",
      "auctionSku": "重量:1.78g;规格:国检标签",
      "auctionTitle": "",
      "buyCount": 0,
      "carServiceLocation": "",
      "cmsSource": "天猫",
      "displayRatePic": "",
      "displayRateSum": 0,
      "displayUserLink": "",
      "displayUserNick": "a***子",
      "displayUserNumId": "",
      "displayUserRateLink": "",
      "dsr": 0.0,
      "fromMall": true,
      "fromMemory": 0,
      "gmtCreateTime": 1491630507000,
      "id": 306679562018,
      "pics": "",
      "picsSmall": "",
      "position": "920-11-0,4;920-12-5,8;",
      "rateContent": "还可以吧，有点小。",
      "rateDate": "2017-04-08 13:48:27",
      "reply": "亲~我们的产品页面上都会有产品的全方位实物展示图和相应尺寸标注，您可以作为购买参考， 同时我们也会不断完善产品页面，让您可以更加直观的了解产品相关情况，期待您的下次光临~",
      "sellerId": 1720024852,
      "serviceRateContent": "",
      "structuredRateList": [],
      "tamllSweetLevel": 0,
      "tmallSweetPic": "",
      "tradeEndTime": 1491630441000,
      "tradeId": "",
      "useful": true,
      "userIdEncryption": "",
      "userInfo": "",
      "userVipLevel": 0,
      "userVipPic": ""
    }, {
      "aliMallSeller": false,
      "anony": true,
      "appendComment": "",
      "attributes": "",
      "attributesMap": "",
      "aucNumId": "",
      "auctionPicUrl": "",
      "auctionPrice": "",
      "auctionSku": "重量:1.8g;规格:国检标签",
      "auctionTitle": "",
      "buyCount": 0,
      "carServiceLocation": "",
      "cmsSource": "天猫",
      "displayRatePic": "",
      "displayRateSum": 0,
      "displayUserLink": "",
      "displayUserNick": "无***知",
      "displayUserNumId": "",
      "displayUserRateLink": "",
      "dsr": 0.0,
      "fromMall": true,
      "fromMemory": 0,
      "gmtCreateTime": 1491229919000,
      "id": 305960338623,
      "pics": "",
      "picsSmall": "",
      "position": "920-11-0,4;920-11-8,11;920-11-5,7;",
      "rateContent": "挺喜欢的 很好 很喜欢",
      "rateDate": "2017-04-03 22:31:59",
      "reply": "感谢您的喜爱与支持，您的满意是我们的心愿与追求，给予您贴心的服务，是我们一直努力的目标，我们会继续努力做到更好，中国黄金官方旗舰店愿与您分享每一个快乐的时光。希望能成为您一生的知己，相伴每一个快乐时光。店里也时常有优惠活动，您可以常留意关注下哦！",
      "sellerId": 1720024852,
      "serviceRateContent": "",
      "structuredRateList": [],
      "tamllSweetLevel": 0,
      "tmallSweetPic": "",
      "tradeEndTime": 1490359884000,
      "tradeId": "",
      "useful": true,
      "userIdEncryption": "",
      "userInfo": "",
      "userVipLevel": 0,
      "userVipPic": ""
    }, {
      "aliMallSeller": false,
      "anony": true,
      "appendComment": "",
      "attributes": "",
      "attributesMap": "",
      "aucNumId": "",
      "auctionPicUrl": "",
      "auctionPrice": "",
      "auctionSku": "重量:1.81g;规格:国检标签",
      "auctionTitle": "",
      "buyCount": 0,
      "carServiceLocation": "",
      "cmsSource": "天猫",
      "displayRatePic": "",
      "displayRateSum": 0,
      "displayUserLink": "",
      "displayUserNick": "m***7",
      "displayUserNumId": "",
      "displayUserRateLink": "",
      "dsr": 0.0,
      "fromMall": true,
      "fromMemory": 0,
      "gmtCreateTime": 1491390541000,
      "id": 306447587256,
      "pics": "",
      "picsSmall": "",
      "position": "",
      "rateContent": "坠子不错~",
      "rateDate": "2017-04-05 19:09:01",
      "reply": "感谢您对中国黄金的支持与厚爱，您的满意是对我们最大的鼓励。 我们会不断推出优惠活动，回馈新老顾客，请随时关注我们哦！",
      "sellerId": 1720024852,
      "serviceRateContent": "",
      "structuredRateList": [],
      "tamllSweetLevel": 0,
      "tmallSweetPic": "",
      "tradeEndTime": 1490877392000,
      "tradeId": "",
      "useful": true,
      "userIdEncryption": "",
      "userInfo": "",
      "userVipLevel": 0,
      "userVipPic": ""
    }, {
      "aliMallSeller": false,
      "anony": true,
      "appendComment": "",
      "attributes": "",
      "attributesMap": "",
      "aucNumId": "",
      "auctionPicUrl": "",
      "auctionPrice": "",
      "auctionSku": "重量:1.84g;规格:国检标签",
      "auctionTitle": "",
      "buyCount": 0,
      "carServiceLocation": "",
      "cmsSource": "天猫",
      "displayRatePic": "",
      "displayRateSum": 0,
      "displayUserLink": "",
      "displayUserNick": "d***5",
      "displayUserNumId": "",
      "displayUserRateLink": "",
      "dsr": 0.0,
      "fromMall": true,
      "fromMemory": 0,
      "gmtCreateTime": 1490346705000,
      "id": 305192278731,
      "pics": ["//img.alicdn.com/bao/uploaded/i2/1459105035985083930/TB2Z9FAi30kpuFjSspdXXX4YXXa_!!0-rate.jpg"],
      "picsSmall": "",
      "position": "920-11-3,12;920-12-0,2;",
      "rateContent": "高端、大气送朋友小孩满月。有面子。",
      "rateDate": "2017-03-24 17:11:45",
      "reply": "您好，感谢您对中国黄金官方旗舰店的支持！我们时刻都在尽心尽力的努力哦，希望亲们选购愉快，收到包裹的时候都能满意开心，您们的支持是我们不断前进的动力，期待您再次光临~我们会为您做得更好~~",
      "sellerId": 1720024852,
      "serviceRateContent": "",
      "structuredRateList": [],
      "tamllSweetLevel": 0,
      "tmallSweetPic": "",
      "tradeEndTime": 1490346620000,
      "tradeId": "",
      "useful": true,
      "userIdEncryption": "",
      "userInfo": "",
      "userVipLevel": 0,
      "userVipPic": ""
    }, {
      "aliMallSeller": false,
      "anony": true,
      "appendComment": "",
      "attributes": "",
      "attributesMap": "",
      "aucNumId": "",
      "auctionPicUrl": "",
      "auctionPrice": "",
      "auctionSku": "重量:1.8g;规格:国检标签",
      "auctionTitle": "",
      "buyCount": 0,
      "carServiceLocation": "",
      "cmsSource": "天猫",
      "displayRatePic": "",
      "displayRateSum": 0,
      "displayUserLink": "",
      "displayUserNick": "d***5",
      "displayUserNumId": "",
      "displayUserRateLink": "",
      "dsr": 0.0,
      "fromMall": true,
      "fromMemory": 0,
      "gmtCreateTime": 1490354255000,
      "id": 304929259822,
      "pics": "",
      "picsSmall": "",
      "position": "920-11-0,5;920-11-6,10;",
      "rateContent": "形状很漂亮，挺小巧的，不知道会不会出大一点的款式",
      "rateDate": "2017-03-24 19:17:35",
      "reply": "感谢您的支持，产品能够得到您的肯定和喜欢，我们也非常高兴。中国黄金会不定期举行活动，如您需要咨询更多的活动优惠信息欢迎联系客服哦，期待您的下次光临！",
      "sellerId": 1720024852,
      "serviceRateContent": "",
      "structuredRateList": [],
      "tamllSweetLevel": 0,
      "tmallSweetPic": "",
      "tradeEndTime": 1490353795000,
      "tradeId": "",
      "useful": true,
      "userIdEncryption": "",
      "userInfo": "",
      "userVipLevel": 0,
      "userVipPic": ""
    }, {
      "aliMallSeller": false,
      "anony": true,
      "appendComment": "",
      "attributes": "",
      "attributesMap": "",
      "aucNumId": "",
      "auctionPicUrl": "",
      "auctionPrice": "",
      "auctionSku": "重量:1.76g;规格:国检标签",
      "auctionTitle": "",
      "buyCount": 0,
      "carServiceLocation": "",
      "cmsSource": "天猫",
      "displayRatePic": "",
      "displayRateSum": 0,
      "displayUserLink": "",
      "displayUserNick": "花***号",
      "displayUserNumId": "",
      "displayUserRateLink": "",
      "dsr": 0.0,
      "fromMall": true,
      "fromMemory": 0,
      "gmtCreateTime": 1490407492000,
      "id": 304981349660,
      "pics": ["//img.alicdn.com/bao/uploaded/i3/693005880/TB290OrkNBmpuFjSZFDXXXD8pXa_!!693005880-0-rate.jpg"],
      "picsSmall": "",
      "position": "920-11-0,2;920-11-3,6;",
      "rateContent": "不错，很精致",
      "rateDate": "2017-03-25 10:04:52",
      "reply": "感谢您的支持，产品能够得到您的肯定和喜欢，我们也非常高兴。中国黄金会不定期举行活动，如您需要咨询更多的活动优惠信息欢迎联系客服哦，期待您的下次光临！",
      "sellerId": 1720024852,
      "serviceRateContent": "",
      "structuredRateList": [],
      "tamllSweetLevel": 3,
      "tmallSweetPic": "tmall-grade-t3-18.png",
      "tradeEndTime": 1490407363000,
      "tradeId": "",
      "useful": true,
      "userIdEncryption": "",
      "userInfo": "",
      "userVipLevel": 0,
      "userVipPic": ""
    }, {
      "aliMallSeller": false,
      "anony": false,
      "appendComment": "",
      "attributes": "",
      "attributesMap": "",
      "aucNumId": "",
      "auctionPicUrl": "",
      "auctionPrice": "",
      "auctionSku": "重量:1.79g;规格:国检标签",
      "auctionTitle": "",
      "buyCount": 0,
      "carServiceLocation": "",
      "cmsSource": "天猫",
      "displayRatePic": "",
      "displayRateSum": 0,
      "displayUserLink": "",
      "displayUserNick": "碧***2",
      "displayUserNumId": "",
      "displayUserRateLink": "",
      "dsr": 0.0,
      "fromMall": true,
      "fromMemory": 0,
      "gmtCreateTime": 1486531306000,
      "id": 300698796490,
      "pics": ["//img.alicdn.com/bao/uploaded/i3/1674805003650278979/TB2eO.eekqvpuFjSZFhXXaOgXXa_!!0-rate.jpg", "//img.alicdn.com/bao/uploaded/i4/1674805003650307305/TB2Qzo1eb4npuFjSZFmXXXl4FXa_!!0-rate.jpg", "//img.alicdn.com/bao/uploaded/i4/1674805003650323742/TB2Tk2Cdr8kpuFjy0FcXXaUhpXa_!!0-rate.jpg", "//img.alicdn.com/bao/uploaded/i3/1674805003650333628/TB2Ql3ReblmpuFjSZFlXXbdQXXa_!!0-rate.jpg"],
      "picsSmall": "",
      "position": "10120-11-11,19;920-11-47,49;920-11-41,46;420-11-5,10;920-11-26,34;920-11-20,25;",
      "rateContent": "收到货了，快递很给力！卖家服务态度优秀，细致有耐心！花生看起来不错的！有认证标签，可以放心的！大赞！???",
      "rateDate": "2017-02-08 13:21:46",
      "reply": "感谢您对中国黄金的支持与厚爱，您的满意是对我们最大的鼓励。 我们会不断推出优惠活动，回馈新老顾客，请随时关注我们哦！",
      "sellerId": 1720024852,
      "serviceRateContent": "",
      "structuredRateList": [],
      "tamllSweetLevel": 0,
      "tmallSweetPic": "",
      "tradeEndTime": 1486531156000,
      "tradeId": "",
      "useful": true,
      "userIdEncryption": "",
      "userInfo": "",
      "userVipLevel": 0,
      "userVipPic": ""
    }, {
      "aliMallSeller": false,
      "anony": true,
      "appendComment": "",
      "attributes": "",
      "attributesMap": "",
      "aucNumId": "",
      "auctionPicUrl": "",
      "auctionPrice": "",
      "auctionSku": "重量:1.82g;规格:国检标签",
      "auctionTitle": "",
      "buyCount": 0,
      "carServiceLocation": "",
      "cmsSource": "天猫",
      "displayRatePic": "",
      "displayRateSum": 0,
      "displayUserLink": "",
      "displayUserNick": "草***4",
      "displayUserNumId": "",
      "displayUserRateLink": "",
      "dsr": 0.0,
      "fromMall": true,
      "fromMemory": 0,
      "gmtCreateTime": 1490966035000,
      "id": 305734373790,
      "pics": "",
      "picsSmall": "",
      "position": "920-11-16,19;420-11-20,26;",
      "rateContent": "今天去店里称了一下。1.819。还可以。物流很好很快",
      "rateDate": "2017-03-31 21:13:55",
      "reply": "您好，感谢您光临中国黄金官方旗舰店，您的好评是对我们为您提供优质、真诚、热情、贴心服务的鼓励及肯定，我们会竭诚为您提供优质的服务，店铺不定期会有优惠活动，请继续关注哦，期待您的再次光临！",
      "sellerId": 1720024852,
      "serviceRateContent": "",
      "structuredRateList": [],
      "tamllSweetLevel": 0,
      "tmallSweetPic": "",
      "tradeEndTime": 1490843651000,
      "tradeId": "",
      "useful": true,
      "userIdEncryption": "",
      "userInfo": "",
      "userVipLevel": 0,
      "userVipPic": ""
    }, {
      "aliMallSeller": false,
      "anony": true,
      "appendComment": "",
      "attributes": "",
      "attributesMap": "",
      "aucNumId": "",
      "auctionPicUrl": "",
      "auctionPrice": "",
      "auctionSku": "重量:1.81g;规格:国检标签",
      "auctionTitle": "",
      "buyCount": 0,
      "carServiceLocation": "",
      "cmsSource": "天猫",
      "displayRatePic": "",
      "displayRateSum": 0,
      "displayUserLink": "",
      "displayUserNick": "嘉***娜",
      "displayUserNumId": "",
      "displayUserRateLink": "",
      "dsr": 0.0,
      "fromMall": true,
      "fromMemory": 0,
      "gmtCreateTime": 1491051486000,
      "id": 305728460464,
      "pics": "",
      "picsSmall": "",
      "position": "920-11-0,3;",
      "rateContent": "还可以 就是比想象中小点",
      "rateDate": "2017-04-01 20:58:06",
      "reply": "亲~我们的产品页面上都会有产品的全方位实物展示图和相应尺寸标注，您可以作为购买参考， 同时我们也会不断完善产品页面，让您可以更加直观的了解产品相关情况，期待您的下次光临~",
      "sellerId": 1720024852,
      "serviceRateContent": "",
      "structuredRateList": [],
      "tamllSweetLevel": 0,
      "tmallSweetPic": "",
      "tradeEndTime": 1491051428000,
      "tradeId": "",
      "useful": true,
      "userIdEncryption": "",
      "userInfo": "",
      "userVipLevel": 0,
      "userVipPic": ""
    }, {
      "aliMallSeller": false,
      "anony": false,
      "appendComment": "",
      "attributes": "",
      "attributesMap": "",
      "aucNumId": "",
      "auctionPicUrl": "",
      "auctionPrice": "",
      "auctionSku": "重量:1.84g;规格:国检标签",
      "auctionTitle": "",
      "buyCount": 0,
      "carServiceLocation": "",
      "cmsSource": "天猫",
      "displayRatePic": "",
      "displayRateSum": 0,
      "displayUserLink": "",
      "displayUserNick": "t***6",
      "displayUserNumId": "",
      "displayUserRateLink": "",
      "dsr": 0.0,
      "fromMall": true,
      "fromMemory": 0,
      "gmtCreateTime": 1490448452000,
      "id": 305098943325,
      "pics": "",
      "picsSmall": "",
      "position": "420-11-0,2;",
      "rateContent": "神速，23号下单，25号收货",
      "rateDate": "2017-03-25 21:27:32",
      "reply": "感谢您的喜爱与支持，您的满意是我们的心愿与追求，给予您贴心的服务，是我们一直努力的目标，我们会继续努力做到更好，中国黄金官方旗舰店愿与您分享每一个快乐的时光。希望能成为您一生的知己，相伴每一个快乐时光。店里也时常有优惠活动，您可以常留意关注下哦！",
      "sellerId": 1720024852,
      "serviceRateContent": "",
      "structuredRateList": [],
      "tamllSweetLevel": 2,
      "tmallSweetPic": "tmall-grade-t2-18.png",
      "tradeEndTime": 1490448404000,
      "tradeId": "",
      "useful": true,
      "userIdEncryption": "",
      "userInfo": "",
      "userVipLevel": 0,
      "userVipPic": ""
    }, {
      "aliMallSeller": false,
      "anony": true,
      "appendComment": "",
      "attributes": "",
      "attributesMap": "",
      "aucNumId": "",
      "auctionPicUrl": "",
      "auctionPrice": "",
      "auctionSku": "重量:1.68g;规格:国检标签",
      "auctionTitle": "",
      "buyCount": 0,
      "carServiceLocation": "",
      "cmsSource": "天猫",
      "displayRatePic": "",
      "displayRateSum": 0,
      "displayUserLink": "",
      "displayUserNick": "m***o",
      "displayUserNumId": "",
      "displayUserRateLink": "",
      "dsr": 0.0,
      "fromMall": true,
      "fromMemory": 0,
      "gmtCreateTime": 1489214336000,
      "id": 303758396801,
      "pics": ["//img.alicdn.com/bao/uploaded/i1/1826405025916179487/TB2Dcy2hbRkpuFjSspmXXc.9XXa_!!0-rate.jpg"],
      "picsSmall": "",
      "position": "920-11-0,5;920-11-21,23;920-11-6,8;",
      "rateContent": "花生非常好，满意，二维码都扫了有网上信息，放心！以后会继续购买的！",
      "rateDate": "2017-03-11 14:38:56",
      "reply": "感谢您的喜爱与支持，您的满意是我们的心愿与追求，给予您贴心的服务，是我们一直努力的目标，我们会继续努力做到更好，中国黄金官方旗舰店愿与您分享每一个快乐的时光。希望能成为您一生的知己，相伴每一个快乐时光。店里也时常有优惠活动，您可以常留意关注下哦！",
      "sellerId": 1720024852,
      "serviceRateContent": "",
      "structuredRateList": [],
      "tamllSweetLevel": 0,
      "tmallSweetPic": "",
      "tradeEndTime": 1489214230000,
      "tradeId": "",
      "useful": true,
      "userIdEncryption": "",
      "userInfo": "",
      "userVipLevel": 0,
      "userVipPic": ""
    }],
    "searchinfo": "",
    "tags": ""
  }
}
